{
    "content": [
                {
            "id": 1,
            "temp1": 23.17,
            "humidity1": 90,
            "cityName": "Recife",
            "cityCountry": "BR",
            "weather1": "Rain",
            "description1": "chuva leve",
            "timer1": "2023-11-20 03:00:00",
            "temp2": 23.31,
            "humidity2": 89,
            "weather2": "Rain",
            "description2": "chuva leve",
            "timer2": "2023-11-20 06:00:00",
            "temp3": 23.55,
            "humidity3": 87,
            "weather3": "Clouds",
            "description3": "nublado",
            "timer3": "2023-11-20 09:00:00",
            "temp4": 27.11,
            "humidity4": 67,
            "weather4": "Clouds",
            "description4": "nublado",
            "timer4": "2023-11-20 12:00:00",
            "temp5": 30.22,
            "humidity5": 50,
            "weather5": "Clouds",
            "description5": "nublado",
            "timer5": "2023-11-20 15:00:00",
            "temp6": 25.17,
            "humidity6": 75,
            "weather6": "Clouds",
            "description6": "nublado",
            "timer6": "2023-11-21 00:00:00",
            "temp7": 22.72,
            "humidity7": 88,
            "weather7": "Clouds",
            "description7": "algumas nuvens",
            "timer7": "2023-11-22 00:00:00",
            "temp8": 22.9,
            "humidity8": 84,
            "weather8": "Clear",
            "description8": "céu limpo",
            "timer8": "2023-11-23 00:00:00",
            "temp9": 22.74,
            "humidity9": 85,
            "weather9": "Clear",
            "description9": "céu limpo",
            "timer9": "2023-11-24 00:00:00"
        },
        {
            "id": 2,
            "cityName": "Pombos",
            "cityCountry": "BR",
            "temp1": 23.17,
            "humidity1": 90,
            "weather1": "Rain",
            "description1": "chuva leve",
            "timer1": "2023-11-20 03:00:00",
            "temp2": 23.31,
            "humidity2": 89,
            "weather2": "Rain",
            "description2": "chuva leve",
            "timer2": "2023-11-20 06:00:00",
            "temp3": 23.55,
            "humidity3": 87,
            "weather3": "Clouds",
            "description3": "nublado",
            "timer3": "2023-11-20 09:00:00",
            "temp4": 27.11,
            "humidity4": 67,
            "weather4": "Clouds",
            "description4": "nublado",
            "timer4": "2023-11-20 12:00:00",
            "temp5": 30.22,
            "humidity5": 50,
            "weather5": "Clouds",
            "description5": "nublado",
            "timer5": "2023-11-20 15:00:00",
            "temp6": 25.17,
            "humidity6": 75,
            "weather6": "Clouds",
            "description6": "nublado",
            "timer6": "2023-11-21 00:00:00",
            "temp7": 22.72,
            "humidity7": 88,
            "weather7": "Clouds",
            "description7": "algumas nuvens",
            "timer7": "2023-11-22 00:00:00",
            "temp8": 22.9,
            "humidity8": 84,
            "weather8": "Clear",
            "description8": "céu limpo",
            "timer8": "2023-11-23 00:00:00",
            "temp9": 22.74,
            "humidity9": 85,
            "weather9": "Clear",
            "description9": "céu limpo",
            "timer9": "2023-11-24 00:00:00"
        }
    ],
    "pageable": {
        "sort": {
            "empty": false,
            "sorted": true,
            "unsorted": false
        },
        "offset": 0,
        "pageSize": 5,
        "pageNumber": 0,
        "paged": true,
        "unpaged": false
    },
    "last": false,
    "totalElements": 10,
    "totalPages": 2,
    "first": true,
    "size": 5,
    "number": 0,
    "sort": {
        "empty": false,
        "sorted": true,
        "unsorted": false
    },
    "numberOfElements": 5,
    "empty": false
}